{
  "openapi": "3.0.1",
  "info": {
    "title": "OpenAPI definition",
    "version": "v0"
  },
  "servers": [
    {
      "url": "http://localhost:8080",
      "description": "Generated server url"
    }
  ],
  "paths": {
    "/users/create": {
      "post": {
        "tags": [
          "user-rest-controller"
        ],
        "operationId": "createUser",
        "parameters": [
          {
            "name": "user",
            "in": "query",
            "required": true,
            "schema": {
              "$ref": "#/components/schemas/UserRegistrationDto"
            }
          }
        ],
        "responses": {
          "200": {
            "description": "OK"
          }
        }
      }
    },
    "/users": {
      "get": {
        "tags": [
          "user-rest-controller"
        ],
        "operationId": "getAllUsers",
        "responses": {
          "200": {
            "description": "OK",
            "content": {
              "*/*": {
                "schema": {
                  "type": "array",
                  "items": {
                    "$ref": "#/components/schemas/UserBasicViewDto"
                  }
                }
              }
            }
          }
        }
      }
    },
    "/users/{id}": {
      "get": {
        "tags": [
          "user-rest-controller"
        ],
        "operationId": "findById",
        "parameters": [
          {
            "name": "id",
            "in": "path",
            "required": true,
            "schema": {
              "type": "integer",
              "format": "int64"
            }
          }
        ],
        "responses": {
          "200": {
            "description": "OK",
            "content": {
              "*/*": {
                "schema": {
                  "$ref": "#/components/schemas/UserBasicViewDto"
                }
              }
            }
          }
        }
      }
    },
    "/users/{id}/login": {
      "get": {
        "tags": [
          "user-rest-controller"
        ],
        "operationId": "userLogin",
        "parameters": [
          {
            "name": "id",
            "in": "path",
            "required": true,
            "schema": {
              "type": "integer",
              "format": "int64"
            }
          }
        ],
        "responses": {
          "200": {
            "description": "OK"
          }
        }
      }
    },
    "/users/{id}/details": {
      "get": {
        "tags": [
          "user-rest-controller"
        ],
        "operationId": "findByIdDetailed",
        "parameters": [
          {
            "name": "id",
            "in": "path",
            "required": true,
            "schema": {
              "type": "integer",
              "format": "int64"
            }
          }
        ],
        "responses": {
          "200": {
            "description": "OK",
            "content": {
              "*/*": {
                "schema": {
                  "$ref": "#/components/schemas/UserDetailedViewDto"
                }
              }
            }
          }
        }
      }
    },
    "/users/{id}/delete": {
      "get": {
        "tags": [
          "user-rest-controller"
        ],
        "operationId": "deleteUser",
        "parameters": [
          {
            "name": "id",
            "in": "path",
            "required": true,
            "schema": {
              "type": "integer",
              "format": "int64"
            }
          }
        ],
        "responses": {
          "200": {
            "description": "OK"
          }
        }
      }
    },
    "/users/{id}/deactivate": {
      "get": {
        "tags": [
          "user-rest-controller"
        ],
        "operationId": "deactivateUser",
        "parameters": [
          {
            "name": "id",
            "in": "path",
            "required": true,
            "schema": {
              "type": "integer",
              "format": "int64"
            }
          }
        ],
        "responses": {
          "200": {
            "description": "OK"
          }
        }
      }
    },
    "/users/{id}/activate": {
      "get": {
        "tags": [
          "user-rest-controller"
        ],
        "operationId": "activateUser",
        "parameters": [
          {
            "name": "id",
            "in": "path",
            "required": true,
            "schema": {
              "type": "integer",
              "format": "int64"
            }
          }
        ],
        "responses": {
          "200": {
            "description": "OK"
          }
        }
      }
    },
    "/users/details": {
      "get": {
        "tags": [
          "user-rest-controller"
        ],
        "operationId": "getAllUsersDetailed",
        "responses": {
          "200": {
            "description": "OK",
            "content": {
              "*/*": {
                "schema": {
                  "type": "array",
                  "items": {
                    "$ref": "#/components/schemas/UserDetailedViewDto"
                  }
                }
              }
            }
          }
        }
      }
    }
  },
  "components": {
    "schemas": {
      "Address": {
        "type": "object",
        "properties": {
          "id": {
            "type": "integer",
            "format": "int64"
          },
          "street": {
            "type": "string"
          },
          "city": {
            "type": "string"
          },
          "state": {
            "type": "string"
          },
          "country": {
            "type": "string"
          },
          "postalCode": {
            "type": "string"
          }
        }
      },
      "Contact": {
        "type": "object",
        "properties": {
          "phoneNumber": {
            "type": "string"
          },
          "mobilePhoneNumber": {
            "type": "string"
          },
          "email": {
            "type": "string"
          },
          "address": {
            "$ref": "#/components/schemas/Address"
          }
        }
      },
      "UserRegistrationDto": {
        "type": "object",
        "properties": {
          "username": {
            "type": "string"
          },
          "password": {
            "type": "string"
          },
          "firstName": {
            "type": "array",
            "items": {
              "type": "string"
            }
          },
          "lastName": {
            "type": "array",
            "items": {
              "type": "string"
            }
          },
          "nationality": {
            "type": "string",
            "enum": [
              "PART1_ALPHA2",
              "PART1_ALPHA3",
              "PART3"
            ]
          },
          "contact": {
            "$ref": "#/components/schemas/Contact"
          },
          "isEmployee": {
            "type": "boolean"
          }
        }
      },
      "UserBasicViewDto": {
        "type": "object",
        "properties": {
          "userName": {
            "type": "string"
          },
          "name": {
            "type": "string"
          },
          "email": {
            "type": "string"
          },
          "isEmployee": {
            "type": "boolean"
          }
        }
      },
      "UserDetailedViewDto": {
        "type": "object",
        "properties": {
          "userName": {
            "type": "string"
          },
          "name": {
            "type": "string"
          },
          "email": {
            "type": "string"
          },
          "phoneNumber": {
            "type": "string"
          },
          "mobilePhoneNumber": {
            "type": "string"
          },
          "address": {
            "type": "string"
          },
          "accountState": {
            "type": "string"
          },
          "lastLoginTimestamp": {
            "type": "integer",
            "format": "int64"
          },
          "lastPasswordChangeTimestamp": {
            "type": "integer",
            "format": "int64"
          },
          "accountCreationTimestamp": {
            "type": "integer",
            "format": "int64"
          },
          "isEmployee": {
            "type": "boolean"
          }
        }
      }
    }
  }
}